<?xml version="1.0" encoding="UTF-8" standalone="no"?>
<!-- Created with Inkscape (http://www.inkscape.org/) -->

<svg
   xmlns:dc="http://purl.org/dc/elements/1.1/"
   xmlns:cc="http://creativecommons.org/ns#"
   xmlns:rdf="http://www.w3.org/1999/02/22-rdf-syntax-ns#"
   xmlns:svg="http://www.w3.org/2000/svg"
   xmlns="http://www.w3.org/2000/svg"
   xmlns:sodipodi="http://sodipodi.sourceforge.net/DTD/sodipodi-0.dtd"
   xmlns:inkscape="http://www.inkscape.org/namespaces/inkscape"
   width="100"
   height="100"
   id="svg2"
   sodipodi:version="0.32"
   inkscape:version="0.91 r13725"
   version="1.0"
   sodipodi:docname="learn_decimals_subtractions.svg">
  <defs
     id="defs4" />
  <sodipodi:namedview
     id="base"
     pagecolor="#ffffff"
     bordercolor="#666666"
     borderopacity="1.0"
     inkscape:pageopacity="0.0"
     inkscape:pageshadow="2"
     inkscape:zoom="5.0088019"
     inkscape:cx="6.4507461"
     inkscape:cy="44.424377"
     inkscape:document-units="px"
     inkscape:current-layer="layer1"
     width="100px"
     height="100px"
     showguides="true"
     inkscape:guide-bbox="true"
     inkscape:window-width="1880"
     inkscape:window-height="1060"
     inkscape:window-x="-2"
     inkscape:window-y="-3"
     showgrid="false"
     inkscape:window-maximized="1" />
  <metadata
     id="metadata7">
    <rdf:RDF>
      <cc:Work
         rdf:about="">
        <dc:format>image/svg+xml</dc:format>
        <dc:type
           rdf:resource="http://purl.org/dc/dcmitype/StillImage" />
      </cc:Work>
    </rdf:RDF>
  </metadata>
  <g
     inkscape:label="Calque 1"
     inkscape:groupmode="layer"
     id="layer1">
    <path
       style="fill:#947019;fill-opacity:1;fill-rule:evenodd;stroke:none"
       d="m 13.272275,62.101638 c 1.399461,-2.179163 6.258426,-11.724122 6.717416,-12.48186 0.458987,-0.757739 6.557476,-10.549281 7.357168,-11.508912 0.799691,-0.95963 5.597846,-11.675507 6.557478,-12.475199 0.959631,-0.799693 3.998462,-7.557094 6.39754,-12.155325 2.399074,-4.59823 2.559011,-5.7577829 3.198768,-6.2375981 0.639752,-0.4798153 2.119185,-3.078816 5.917724,-2.5590155 3.798539,0.5197985 5.357937,0.7197229 9.276431,4.6382156 3.918491,3.918493 5.917723,9.916186 6.397538,11.035753 0.479817,1.11957 6.196437,9.892276 6.916162,11.211768 0.719723,0.03997 6.198793,12.459125 6.838548,13.898571 0.639752,0.479816 4.158398,12.155323 4.958089,13.434832 0.799694,1.279507 4.798155,5.437909 5.917725,7.996922 1.119569,2.559018 5.597846,9.916186 5.757785,11.195695 0.159946,1.279504 4.638213,8.156859 2.878892,11.515568 -1.759322,3.358709 -8.796614,4.478277 -10.236062,4.638216 -1.439446,0.159945 -8.636677,0 -13.754708,0 -5.118031,0 -18.872736,0.319876 -19.992308,0.159945 -1.119568,-0.159945 -8.796616,-0.159945 -10.236062,-0.159945 -1.439448,0 -12.635138,-0.159946 -13.754707,-0.159946 -1.11957,0 -7.357169,0.370053 -7.996923,0.370053 -0.639756,0 -6.717416,0.429641 -10.236064,-0.05018 C 8.667113,93.823901 2.4236521,88.913266 1.7567055,85.292699 2.3964593,83.373438 2.5563977,78.895159 4.4756594,76.656022 8.1073611,72.412187 10.906839,67.122018 13.272275,62.101621 z"
       id="path11693"
       sodipodi:nodetypes="ccccccccccccccccccccccccc"
       inkscape:connector-curvature="0" />
    <path
       style="fill:#f6c44c;fill-opacity:1;fill-rule:evenodd;stroke:none"
       d="m 18.697371,61.545666 c 1.189502,-1.888271 5.31949,-6.827197 5.709617,-7.483785 0.390127,-0.656589 5.573679,-12.472978 6.253394,-13.304508 0.679716,-0.831534 4.758016,-10.116972 5.573677,-10.809915 0.81566,-0.692943 3.238645,-4.309174 5.277796,-8.293597 1.992072,-4.422392 5.824461,-10.919665 8.388524,-10.981081 3.228654,0.450414 2.717161,2.421778 6.047774,5.817199 3.330611,3.395424 5.256091,8.818682 5.66392,9.788803 0.40783,0.970121 5.82098,9.038986 6.432725,10.182342 0.611745,0.03464 5.845563,9.424027 6.389338,10.671324 0.543772,0.415767 3.534526,10.532737 4.214242,11.641445 0.679718,1.108707 2.798793,5.991522 3.750396,8.208939 0.951602,2.217418 4.438138,8.432556 4.574082,9.541266 0.135938,1.108708 4.901989,8.027651 4.846058,8.698874 -1.495377,2.910361 -7.157006,3.400667 -8.380494,3.539256 -1.223491,0.138591 -8.460512,-0.959631 -12.810698,-0.959631 -4.350185,0 -16.041311,1.876561 -16.992914,1.737972 -0.951604,-0.138591 -6.837134,0.501163 -8.060622,0.501163 -1.223491,0 -11.379276,-0.778339 -12.330881,-0.778339 -0.951602,0 -6.413328,0.352084 -6.957103,0.352084 -0.543774,0 -5.549682,0.340857 -8.540435,-0.07491 -2.96266,-0.507158 -8.2694304,-4.762284 -8.8363174,-7.89955 0.5437735,-1.663064 0.9995943,-4.264037 2.6309134,-6.204276 3.086849,-3.677335 5.14645,-9.54084 7.157008,-13.891075 z"
       id="path12580"
       sodipodi:nodetypes="cccccccccccccccccccccccc"
       inkscape:connector-curvature="0" />
    <path
       style="fill:#4d410d;fill-opacity:1;fill-rule:evenodd;stroke:none"
       d="M 47.491976,63.710103 45.908664,53.531682 c 0,0 -1.130935,-7.011803 -0.678562,-8.368926 0.452376,-1.357121 -1.809496,-7.690362 -1.130934,-9.047483 0.678561,-1.357126 0,-6.107055 1.130934,-7.690364 1.130937,-1.583312 2.940435,-4.297557 3.845184,-4.297557 0.904748,0 4.071369,-0.226188 4.071369,-0.226188 3.708456,2.100875 2.408809,3.800337 2.035685,7.237989 0.226187,1.809498 -0.90475,4.749931 -0.90475,6.107054 0,1.357124 -0.678562,6.107053 -0.678562,7.690362 0,1.58331 -0.678561,7.690364 -0.678561,7.690364 l -1.357124,5.428491 -0.678559,4.523743 -3.392808,1.130936 z"
       id="path12582"
       sodipodi:nodetypes="ccssssccsscccc"
       inkscape:connector-curvature="0" />
    <path
       style="fill:#4d410d;fill-opacity:1;fill-rule:evenodd;stroke:none"
       d="m 45.686379,70.490466 c 0,0 3.657991,-3.660723 5.748274,-1.689564 2.09028,1.971159 3.919276,2.815941 4.180561,5.068693 0.261285,2.252752 0.261285,5.913475 -0.783854,6.758257 -1.045144,0.844782 -5.748276,2.534347 -5.748276,2.534347 l -5.225702,-2.252752 -1.115335,-6.315 2.944332,-4.103981 z"
       id="path12584"
       sodipodi:nodetypes="cssscccc"
       inkscape:connector-curvature="0" />
  </g>
</svg>
